-------------------------------------------------------------------------------
Test set: com.jolie.example.HelloWorldMSTest
-------------------------------------------------------------------------------
Tests run: 1, Failures: 0, Errors: 0, Skipped: 0, Time elapsed: 0.006 s - in com.jolie.example.HelloWorldMSTest
